[
 [-24.570077, -46.644003],
 [-23.570114, -46.643911],
 [-23.570692, -46.643829],
 [-23.570943, -46.643848],
 [-23.571052, -46.643910],
 [-23.571416, -46.644322],
 [-23.571795, -46.644421],
 [-23.571794, -46.644504],
 [-23.572159, -46.645428],
 [-23.571932, -46.645555],
 [-23.571245, -46.646535],
 [-23.569917, -46.648213],
 [-23.569142, -46.649156],
 [-23.562917, -46.656615],
 [-23.557378, -46.662982],
 [-23.555407, -46.660851],
 [-23.557929, -46.657895],
 [-23.557137, -46.657280],
 [-23.557706, -46.656390],
 [-23.557890, -46.656320],
 [-23.559367, -46.656355],
 [-23.559959, -46.656161],
 [-23.562753, -46.652938]
]

